SHELL=/bin/sh
PATH=/bin:/usr/sbin:/usr/bin:/dockers

#                                       день
# минуты        часы    день    месяц   недели  комманда
# (0-59)        (0-23)  (1-31)  (1-12)  (1-7)   |
# |             |       |       |       |       |
# выполнение backup БД
  30    0       *       *       *       /dockers/backuper.sh
